# MatchIt 라이브러리를 사용한 Propensity Score Matching

`MatchIt` 라이브러리에는 Propensity Score Matching 을 위한 다양한 기법들이 구현되어 있다.

```r
# 필요한 라이브러리를 미리 설치한다
# install.packages(c('MatchIt', 'optmatch', 'lmtest', 'sandwich'))
library(MatchIt)
library(tidyverse)

# 타입을 쉽게 확인할 수 있도록 tibble로 변환해둔다
data('lalonde', package = 'MatchIt')
lalonde = tibble(lalonde)
# # A tibble: 614 x 9
#    treat   age  educ race   married nodegree  re74  re75   re78
#    <int> <int> <int> <fct>    <int>    <int> <dbl> <dbl>  <dbl>
#  1     1    37    11 black        1        1     0     0  9930.
#  2     1    22     9 hispan       0        1     0     0  3596.
#  3     1    30    12 black        0        0     0     0 24909.
#  4     1    27    11 black        0        1     0     0  7506.
#  5     1    33     8 black        0        1     0     0   290.
#  6     1    22     9 black        0        1     0     0  4056.
#  7     1    23    12 black        0        0     0     0     0 
#  8     1    32    11 black        0        1     0     0  8472.
#  9     1    22    16 black        0        0     0     0  2164.
# 10     1    33    12 white        1        0     0     0 12418.
# # … with 604 more rows
…
다음과 같은 형태로 ATE를 추정한다.

```r
# Matched Dataset
lalonde_matched <- match.data(m_match)
# # A tibble: 614 x 12
#    treat   age  educ race   married nodegree  re74  re75   re78 distance weights subclass
#    <int> <int> <int> <fct>    <int>    <int> <dbl> <dbl>  <dbl>    <dbl>   <dbl> <fct>   
#  1     1    37    11 black        1        1     0     0  9930.   0.639    0.603 1       
#  2     1    22     9 hispan       0        1     0     0  3596.   0.225    1.21  103     
#  3     1    30    12 black        0        0     0     0 24909.   0.678    0.603 8       
#  4     1    27    11 black        0        1     0     0  7506.   0.776    0.339 15      
#  5     1    33     8 black        0        1     0     0   290.   0.702    0.362 24      
#  6     1    22     9 black        0        1     0     0  4056.   0.699    0.603 32      
#  7     1    23    12 black        0        0     0     0     0    0.654    0.452 38      
#  8     1    32    11 black        0        1     0     0  8472.   0.790    0.335 46      
#  9     1    22    16 black        0        0     0     0  2164.   0.780    0.339 15      
# 10     1    33    12 white        1        0     0     0 12418.   0.0429   1.21  58      
# # … with 604 more rows
…
