…
  transmute(
    treatment = factor(ifelse(treat_ind == "1.0", "Treatment", "Control"), levels = c('Control', 'Treatment')),
    trans_therm_post = as.numeric(therm_trans_t1),
    trans_therm_pre = as.numeric(therm_trans_t0),
    age = as.numeric(vf_age),
    party = factor(vf_party),
    race = factor(vf_racename),
    voted14 = as.integer(vf_vg_14),
    voted12 = as.integer(vf_vg_12),
    voted10 = as.integer(vf_vg_10),
    sdo = as.numeric(sdo_scale), # Social dominance orientation
    canvass_minutes = as.numeric(canvass_minutes)
  ) %>% 
  filter(complete.cases(.))
# # A tibble: 419 x 11
#    treatment trans_therm_post trans_therm_pre   age party race    voted14 voted12 voted10       sdo canvass_minutes
#    <fct>                <dbl>           <dbl> <dbl> <fct> <fct>     <int>   <int>   <int>     <dbl>           <dbl>
#  1 Control                  3               0    29 D     Africa…       0       1       0 -6.63e-10               3
#  2 Treatment              100              50    35 D     Africa…       1       1       0  7.11e- 2              13
#  3 Treatment               50              50    63 D     Africa…       1       1       1 -5.50e- 1              12
#  4 Control                 30              47    51 N     Caucas…       1       1       0 -1.01e- 1               0
#  5 Control                 50              74    26 D     Africa…       1       1       0 -6.63e-10               1
#  6 Treatment               84              76    62 D     Africa…       1       1       1 -9.01e- 1              20
#  7 Treatment               50              50    20 D     Africa…       1       0       0 -7.60e- 1              20
#  8 Control                 50              50    51 R     Caucas…       1       1       1  4.19e- 1               1
#  9 Treatment               50             100    53 R     Caucas…       0       1       1 -6.74e- 1               5
# 10 Treatment               89              64    66 D     Hispan…       1       1       1  1.14e- 1               2
# # … with 409 more rows
…
