…
# 2. 샘플링 결과 다루기

파라미터 각각에 대한 샘플링 결과를 살펴보고 싶다면, stan object를 데이터 프레임으로 변환하여 보는 것이 편리하다.
변환하면 각각의 파라미터를 컬럼별로 확인할 수 있다.

```r
df_samples = stan_samples %>%
  extract() %>%
  as_tibble()

# # A tibble: 4,000 x 3
#    theta1 theta2  lp__
#     <dbl>  <dbl> <dbl>
#  1 0.160   0.720 -15.7
#  2 0.253   0.764 -15.9
#  3 0.360   0.574 -15.2
#  4 0.194   0.263 -17.7
#  5 0.312   0.589 -15.0
#  6 0.214   0.489 -15.2
#  7 0.205   0.759 -15.9
#  8 0.490   0.477 -16.6
#  9 0.0288  0.627 -19.1
# 10 0.351   0.652 -15.3
# # ... with 3,990 more rows
```
…
